<svg width="10" height="10" viewBox="0 0 10 10" fill="none" xmlns="http://www.w3.org/2000/svg">
<path d="M5 2.5H4.375V5.625H6.875V5H5V2.5Z" fill="#FC5A5A"/>
<path d="M10 4.375V1.875L9.3125 2.5625C8.5 1 6.875 0 5 0C2.25 0 0 2.25 0 5C0 7.75 2.25 10 5 10C6.5 10 7.875 9.3125 8.75 8.25L7.8125 7.4375C7.125 8.25 6.125 8.75 5 8.75C2.9375 8.75 1.25 7.0625 1.25 5C1.25 2.9375 2.9375 1.25 5 1.25C6.5 1.25 7.8125 2.1875 8.4375 3.4375L7.5 4.375H10Z" fill="#FC5A5A"/>
</svg>
