<svg width="19" height="19" viewBox="0 0 19 19" fill="none" xmlns="http://www.w3.org/2000/svg">
<path d="M8.58154 2.65234H2.74821C2.30618 2.65234 1.88226 2.82794 1.5697 3.1405C1.25714 3.45306 1.08154 3.87698 1.08154 4.31901V15.9857C1.08154 16.4277 1.25714 16.8516 1.5697 17.1642C1.88226 17.4767 2.30618 17.6523 2.74821 17.6523H14.4149C14.8569 17.6523 15.2808 17.4767 15.5934 17.1642C15.9059 16.8516 16.0815 16.4277 16.0815 15.9857V10.1523" stroke="#3984EA" stroke-width="1.5" stroke-linecap="round" stroke-linejoin="round"/>
<path d="M14.8315 1.40253C15.1631 1.07101 15.6127 0.884766 16.0815 0.884766C16.5504 0.884766 17 1.07101 17.3315 1.40253C17.6631 1.73405 17.8493 2.18369 17.8493 2.65253C17.8493 3.12137 17.6631 3.57101 17.3315 3.90253L9.41488 11.8192L6.08154 12.6525L6.91488 9.3192L14.8315 1.40253Z" stroke="#3984EA" stroke-width="1.5" stroke-linecap="round" stroke-linejoin="round"/>
</svg>
