<svg width="16" height="16" viewBox="0 0 16 16" fill="none" xmlns="http://www.w3.org/2000/svg">
<path d="M3.39935 0.601613C3.09548 0.630762 2.80664 0.743412 2.5705 0.979557L0.838669 2.71139C-0.132753 3.68281 -0.0852274 5.24133 0.50378 6.84006C1.09279 8.43879 2.2565 10.1919 3.86939 11.8047C5.48227 13.4176 7.23533 14.5825 8.83407 15.1715C10.4328 15.7605 11.9913 15.8069 12.9627 14.8355L14.6946 13.1036C15.1669 12.6313 15.1454 11.9469 14.9493 11.3586C14.7532 10.7703 14.3665 10.1778 13.8287 9.63994C13.2908 9.10208 12.6983 8.71537 12.11 8.51927C11.5217 8.32317 10.8373 8.30174 10.365 8.77402L9.06609 10.0729L5.60122 6.60923L6.9001 5.31035C7.37238 4.83807 7.35095 4.15245 7.15485 3.56416C6.95876 2.97585 6.57205 2.38334 6.03418 1.84547C5.49631 1.30761 4.905 0.920899 4.31669 0.724802C4.02254 0.626751 3.70322 0.572465 3.39935 0.601613ZM3.4364 1.84547C3.44387 1.838 3.57827 1.77037 3.92916 1.88736C4.28005 2.00432 4.74657 2.28974 5.16824 2.71142C5.58991 3.13309 5.87653 3.6008 5.99349 3.95169C6.11046 4.30258 6.04162 4.43696 6.03415 4.44445L4.30231 6.17629C4.18752 6.29113 4.12303 6.44687 4.12303 6.60925C4.12303 6.77163 4.18752 6.92737 4.30231 7.04221L8.6331 11.3718C8.74795 11.4866 8.90368 11.5511 9.06606 11.5511C9.22844 11.5511 9.38418 11.4866 9.49902 11.3718L11.2309 9.63996C11.2383 9.63249 11.3727 9.56367 11.7236 9.68062C12.0745 9.79759 12.541 10.0842 12.9627 10.5059C13.3844 10.9275 13.671 11.3941 13.788 11.745C13.9049 12.0958 13.8361 12.2302 13.8286 12.2377L12.0968 13.9696C11.6289 14.4374 10.6328 14.5289 9.25742 14.0222C7.88205 13.5154 6.24089 12.4444 4.73527 10.9388C3.22964 9.4332 2.15863 7.79203 1.65192 6.41666C1.14521 5.0413 1.23666 4.0452 1.70453 3.57731L3.4364 1.84547Z" fill="#92A3BA"/>
</svg>
